74576 525036 470
593339 574671 434
723157 741165 424
475990 470101 382
861338 19370 525
543764 290164 470
566276 718271 509
361680 284379 441
675854 807332 504
783192 846536 525
468629 415548 444
245412 509363 449
770391 780117 437
398616 439731 449
664714 875406 525
5738 510556 449
168 920858 525
791282 904166 525
152626 571751 470
925343 486953 525
975393 509578 525
853330 486312 525
20214 67261 340
959693 627919 525
550273 337331 470
416400 878581 525
689450 780532 504
102348 91222 341
776586 944512 525
829050 322917 509
195380 117232 383
80476 184988 383
580407 217208 470
181925 663249 509
841733 406201 525
125067 982330 525
718094 406480 509
739541 278524 509
854611 375471 525
790204 594790 509
935304 629245 525
820845 253323 509
370638 745403 509
96154 947799 525
794705 544628 509
759276 901219 525
19902 636912 509
117528 775214 509
908703 122702 525
49228 181991 383
405142 648949 509
451704 719908 509
178548 218014 386
45157 380742 443
149912 36174 375
736470 583793 509
552389 583527 421
141073 648346 509
158023 327368 443
353699 61311 443
761465 282696 509
949121 355722 525
248270 858549 525
555086 534946 452
650254 338534 509
469236 769507 509
902825 626913 525
929538 676480 525
311140 953908 525
214667 453061 449
331781 425427 449
144869 764869 509
319401 458888 449
465386 128825 449
65016 759361 509
531069 646768 509
569847 334236 470
652991 645891 385
929926 541886 525
868138 858633 388
414904 194806 449
575371 873425 525
230554 855833 525
491031 689917 509
47641 698508 509
597136 711325 509
318412 618729 470
150398 966006 525
874799 944506 507
433791 150029 449
16990 532176 470
52495 957315 525
731934 940048 525
384362 927147 525
214685 405639 443
370191 808217 509
135264 192346 383
47869 4907 324
247844 539524 470
829397 803880 450
730422 689479 504
119622 83778 354
14994 151693 375
980988 19781 525
822884 964723 525
844013 64205 525
357853 603084 470
155221 743173 509
907628 404709 525
651335 451118 509
784765 89138 509
551652 259901 470
774508 599501 509
234849 252126 368
187052 424125 449
950499 158953 525
528223 591556 452
101663 946808 525
913238 135543 525
975878 127542 525
253313 915643 525
164018 194554 365
437351 229770 449
686264 905948 525
856636 103186 525
241275 360501 441
460436 639611 509
472834 827089 509
358617 466852 449
517677 565923 452
139984 483946 449
847429 600986 525
819039 510543 509
657569 173116 509
472701 693937 509
108578 205881 383
514573 584302 452
233189 63354 443
450142 421893 418
86642 565909 470
707906 957281 525
632326 965587 525
166728 101495 383
261769 678886 509
577941 670018 509
238400 120450 443
219156 145515 386
487535 287180 449
972813 568266 525
604468 813068 509
243178 382113 441
327982 15128 443
829686 170033 509
853684 12417 525
681866 432725 509
439933 243854 449
197000 719788 509
636026 162967 509
635385 123639 509
85094 995954 525
171234 949035 525
868116 610012 525
378958 673281 509
526802 533450 377
555173 304647 470
275886 491219 449
921996 647956 525
518100 887205 525
201370 284380 443
115708 735456 509
296262 110250 443
333988 587367 470
981390 57701 525
934114 294856 525
466194 801824 509
907385 337492 525
927769 896786 476
971954 499065 525
836700 979594 525
520689 865367 525
470166 380211 449
227148 226221 368
457816 920780 525
128605 521040 470
364333 784409 509
128848 32752 354
618371 303497 470
694280 257058 509
23963 428164 449
709208 800924 468
796657 705773 468
49895 765041 509
388667 234741 441
371577 19896 443
213756 107370 383
10008 337516 443
938018 343636 525
251814 657949 509
467113 305150 449
859696 708554 525
858885 150334 525
895584 842522 445
116353 108709 349
687366 169193 509
699377 956666 525
98229 885384 525
24369 437834 449
104101 510126 449
441256 5631 449
508719 4921 449
346148 365098 410
354246 840842 525
192992 572273 470
278080 343693 389
896118 108563 525
498021 112365 449
139086 178933 383
416712 353301 449
978040 62368 525
318544 611349 470
952247 18960 525
865761 240143 525
731876 626520 504
844413 541762 525
894800 303105 525
210791 917475 525
737728 163301 509
268570 574990 470
70042 37210 340
237666 933731 525
863053 470063 525
703574 669397 442
237089 496239 449
113488 861518 525
586144 377378 470
225512 641557 509
818712 860091 525
173566 188837 365
442205 411829 418
625767 116641 470
186828 423330 449
573524 897693 525
111324 698380 509
338481 84208 443
117647 97801 354
310928 92633 443
723560 333317 509
198245 932593 525
883847 427429 525
877064 574165 525
